Design Route Status
                                               :      # nets :
   ------------------------------------------- : ----------- :
   # of logical nets.......................... :        1408 :
       # of nets not needing routing.......... :         486 :
           # of internally routed nets........ :         486 :
       # of routable nets..................... :         922 :
           # of fully routed nets............. :         922 :
       # of nets with routing errors.......... :           0 :
   ------------------------------------------- : ----------- :

