#-----------------------------------------------------------
# Vivado v2019.1 (64-bit)
# SW Build 2552052 on Fri May 24 14:49:42 MDT 2019
# IP Build 2548770 on Fri May 24 18:01:18 MDT 2019
# Start of session at: Thu Nov  7 17:46:46 2019
# Process ID: 9508
# Current directory: C:/Users/ajax/labo4
# Command line: vivado.exe -gui_launcher_event rodinguilauncherevent3380 C:\Users\ajax\labo4\labo4.xpr
# Log file: C:/Users/ajax/labo4/vivado.log
# Journal file: C:/Users/ajax/labo4\vivado.jou
#-----------------------------------------------------------
Sourcing tcl script 'C:/Users/ajax/AppData/Roaming/Xilinx/Vivado/Vivado_init.tcl'
start_gui
open_project C:/Users/ajax/labo4/labo4.xpr
WARNING: [Board 49-91] Board repository path '{C:XilinxVivadoivado-boardsutilityivado-boards
ewoard_files}' does not exist, it will not be used to search board files.
Scanning sources...
Finished scanning sources
WARNING: [filemgmt 56-3] Board Part Repository Path: Could not find the directory 'C:/Users/ajax/labo4/{C:XilinxVivado'.
WARNING: [filemgmt 56-3] Board Part Repository Path: Could not find the directory 'C:/Users/ajax/labo4/ivado-boardsutility'.
WARNING: [filemgmt 56-3] Board Part Repository Path: Could not find the directory 'C:/Users/ajax/labo4/ivado-boards'.
WARNING: [filemgmt 56-3] Board Part Repository Path: Could not find the directory 'C:/Users/ajax/labo4/ewoard_files}'.
INFO: [IP_Flow 19-234] Refreshing IP repositories
INFO: [IP_Flow 19-1700] Loaded user IP repository 'c:/Users/ajax/Documents/Nexys-Video-OLED/repo'.
INFO: [IP_Flow 19-2313] Loaded Vivado IP repository 'C:/Xilinx/Vivado/2019.1/data/ip'.
open_project: Time (s): cpu = 00:00:14 ; elapsed = 00:00:13 . Memory (MB): peak = 808.859 ; gain = 205.832
update_compile_order -fileset sources_1
exit
INFO: [Common 17-206] Exiting Vivado at Thu Nov  7 17:47:57 2019...
